DATA2 - Week 11 Assignment
…
Question 2

Import the couples.rds file (available on Canvas) into R and examine its contents. Note that it is an RDS file not a CSV file, so you should use read_rds() to import it.

This file contains simulated/fake data from a study of 30 couples in which one member has a chronic illness. The satisfaction variable contains two numbers separated by a semi-colon. The first number is the life satisfaction rating of the “index” or member with a chronic illness, and the second number is the life satisfaction rating of the “partner” or member without a chronic illness.

Import the couples.rds data file and separate the satisfaction variable into two variables named index and partner.

Then use mutate() to convert these two new variables from strings to numbers and save the output to use in later questions.

Hint

Your output should look like:

# A tibble: 30 × 4
   couple years_together index partner
   <chr>           <dbl> <dbl>   <dbl>
 1 001              16.9 -0.86   -0.58
 2 002              16.5 -1.62   -0.71
 3 003               9.5 -0.7     2.34
 4 004               9.3  3.04    4.06
 5 005               1   -0.13    1.28
 6 006              18.6 -0.53    0.9 
 7 007              19.7 -0.82    0.89
 8 008              13.9 -1.03    1.42
 9 009              23.8 -1.51    0.17
10 010              15.6 -0.47    1.11
# ℹ 20 more rows

Question 3

Reshape the data from the previous question such that each row contains the data from a single individual (with variables for couple, years_together, member, and satisfaction). Save the output to use for the next question.

Create a new variable called id that uniquely identifies each individual participant in the tibble created in Q3a by uniting the couple number and the member type variables separated by an underscore (and using an argument to retain the two variables being united).

Hint

Your output should look like:

# A tibble: 60 × 5
   id          couple years_together member  satisfaction
   <chr>       <chr>           <dbl> <chr>          <dbl>
 1 001_index   001              16.9 index          -0.86
 2 001_partner 001              16.9 partner        -0.58
 3 002_index   002              16.5 index          -1.62
 4 002_partner 002              16.5 partner        -0.71
 5 003_index   003               9.5 index          -0.7 
 6 003_partner 003               9.5 partner         2.34
 7 004_index   004               9.3 index           3.04
 8 004_partner 004               9.3 partner         4.06
 9 005_index   005               1   index          -0.13
10 005_partner 005               1   partner         1.28
# ℹ 50 more rows
…
