DATA2 - Lecture [04b] Activity
…
Then drop (i.e., unselect) the pce, uempmed, and psavert variables from the tibble.

Click here for the answer key

Final Pipeline:

library(tidyverse)
unemp <- 
  economics |> 
  mutate(rate = unemploy / pop) |> 
  select(-pce, -uempmed, -psavert) |> 
  print()

# A tibble: 574 × 4
   date          pop unemploy   rate
   <date>      <dbl>    <dbl>  <dbl>
 1 1967-07-01 198712     2944 0.0148
 2 1967-08-01 198911     2945 0.0148
 3 1967-09-01 199113     2958 0.0149
 4 1967-10-01 199311     3143 0.0158
 5 1967-11-01 199498     3066 0.0154
 6 1967-12-01 199657     3018 0.0151
 7 1968-01-01 199808     2878 0.0144
 8 1968-02-01 199920     3001 0.0150
 9 1968-03-01 200056     2877 0.0144
10 1968-04-01 200208     2709 0.0135
# ℹ 564 more rows
…
Two other useful column verbs are rename() and relocate(). You can use rename(tbl, new_name = old_name) to rename a variable in a tibble. You can use relocate(tbl, var_to_move, .before = other_var) to move a variable before another variable or relocate(tbl, var_to_move, .after = other_var) to move a variable after another variable. These verbs won’t be on the assignment, but are useful to play around with.

Try to rename the uempmed variable in the economics tibble to duration.

Try to move the unemploy variable in the economics tibble to come after the date variable.

Click here for the answer key

Part (a)

library(tidyverse)
rename(economics, duration = uempmed)

# A tibble: 574 × 6
   date         pce    pop psavert duration unemploy
   <date>     <dbl>  <dbl>   <dbl>    <dbl>    <dbl>
 1 1967-07-01  507. 198712    12.6      4.5     2944
 2 1967-08-01  510. 198911    12.6      4.7     2945
 3 1967-09-01  516. 199113    11.9      4.6     2958
 4 1967-10-01  512. 199311    12.9      4.9     3143
 5 1967-11-01  517. 199498    12.8      4.7     3066
 6 1967-12-01  525. 199657    11.8      4.8     3018
 7 1968-01-01  531. 199808    11.7      5.1     2878
 8 1968-02-01  534. 199920    12.3      4.5     3001
 9 1968-03-01  544. 200056    11.7      4.1     2877
10 1968-04-01  544  200208    12.3      4.6     2709
# ℹ 564 more rows

Part (b)

relocate(economics, unemploy, .after = date)

# A tibble: 574 × 6
   date       unemploy   pce    pop psavert uempmed
   <date>        <dbl> <dbl>  <dbl>   <dbl>   <dbl>
 1 1967-07-01     2944  507. 198712    12.6     4.5
 2 1967-08-01     2945  510. 198911    12.6     4.7
 3 1967-09-01     2958  516. 199113    11.9     4.6
 4 1967-10-01     3143  512. 199311    12.9     4.9
 5 1967-11-01     3066  517. 199498    12.8     4.7
 6 1967-12-01     3018  525. 199657    11.8     4.8
 7 1968-01-01     2878  531. 199808    11.7     5.1
 8 1968-02-01     3001  534. 199920    12.3     4.5
 9 1968-03-01     2877  544. 200056    11.7     4.1
10 1968-04-01     2709  544  200208    12.3     4.6
# ℹ 564 more rows
…
