DATA2 - Week 13 Assignment
…
Download the movies2021.csv file from Canvas and read it into R. Use it to complete the following steps:

Add a new column called date that parses the Release_Date character variable as a date variable (using {lubridate})

Add a new column called year that extracts the year from the new date variable as a numeric variable (using {lubridate})

Create a new column called label that combines strings from the tibble in the following format: “Title (year) [language]” such as “COVID-21: Lethal Virus (2021) [en]”

Select the label and Vote_Average variables and print the resulting tibble

Hint

Your answer to part (d) should look like this:

# A tibble: 714 × 2
   label                                           Vote_Average
   <chr>                                                  <dbl>
 1 COVID-21: Lethal Virus (2021) [en]                       5.5
 2 Shadow in the Cloud (2021) [en]                          5.8
 3 The Last Warrior: Root of Evil (2021) [ru]               7.1
 4 The Ogglies: Welcome to Smelliville (2021) [en]          7.3
 5 Stranded (2021) [pt]                                     4.8
 6 Maya the Bee: The Golden Orb (2021) [en]                 6.6
 7 Redemption Day (2021) [en]                               6.3
 8 Batman: Soul of the Dragon (2021) [en]                   7  
 9 Butchers (2021) [en]                                     4.9
10 Monster Family 2 (2021) [en]                             7.1
# ℹ 704 more rows
…
