DATA2 - Lecture [11b] Activity
…
All three tables are connected via the playerID variable.

Answer (b)

library(tidyverse)
library(Lahman) # must be installed first

joined_data <- 
  inner_join(People, Salaries, by = "playerID") |>  
  select(playerID, nameFirst, nameLast, bats, yearID, teamID, salary) |>
  as_tibble() |> 
  print()

# A tibble: 26,428 × 7
   playerID  nameFirst nameLast bats  yearID teamID  salary
   <chr>     <chr>     <chr>    <fct>  <int> <fct>    <int>
 1 aardsda01 David     Aardsma  R       2004 SFN     300000
 2 aardsda01 David     Aardsma  R       2007 CHA     387500
 3 aardsda01 David     Aardsma  R       2008 BOS     403250
 4 aardsda01 David     Aardsma  R       2009 SEA     419000
 5 aardsda01 David     Aardsma  R       2010 SEA    2750000
 6 aardsda01 David     Aardsma  R       2011 SEA    4500000
 7 aardsda01 David     Aardsma  R       2012 NYA     500000
 8 aasedo01  Don       Aase     R       1986 BAL     600000
 9 aasedo01  Don       Aase     R       1987 BAL     625000
10 aasedo01  Don       Aase     R       1988 BAL     675000
# ℹ 26,418 more rows
…
