DATA2 - Lecture [10a] Activity
…
# A tibble: 1 × 4
  n_obs n_cities mdn_listings max_listings
  <int>    <int>        <dbl>        <dbl>
1  8602       46         1283        43107

Question 2 (Grouped Summarize)

Summarize the txhousing tibble to recreate the following tibble (where m_price is the mean of the median variable and s_price is the standard deviation of the median variable, both per city-year combination).

# A tibble: 736 × 4
   city     year m_price s_price
   <chr>   <int>   <dbl>   <dbl>
 1 Abilene  2000  66600    5714.
 2 Abilene  2001  70975    6331.
 3 Abilene  2002  68600    6756.
 4 Abilene  2003  71933.   5598.
 5 Abilene  2004  74867.   7892.
 6 Abilene  2005  87592.  10139.
 7 Abilene  2006 100292.   5187.
 8 Abilene  2007 103650   10931.
 9 Abilene  2008 107133.  10212.
10 Abilene  2009 108367.   9850.
# ℹ 726 more rows

Click here for the answer key

txhousing |> 
  summarize(
    m_price = mean(median),
    s_price = sd(median),
    .by = c(city, year)
  )

# A tibble: 736 × 4
   city     year m_price s_price
   <chr>   <int>   <dbl>   <dbl>
 1 Abilene  2000  66600    5714.
 2 Abilene  2001  70975    6331.
 3 Abilene  2002  68600    6756.
 4 Abilene  2003  71933.   5598.
 5 Abilene  2004  74867.   7892.
 6 Abilene  2005  87592.  10139.
 7 Abilene  2006 100292.   5187.
 8 Abilene  2007 103650   10931.
 9 Abilene  2008 107133.  10212.
10 Abilene  2009 108367.   9850.
# ℹ 726 more rows

Question 3 (Grouped Mutate)

Use a grouped mutate to add a new variable to the txhousing tibble that shows the average number of sales for that city in that year. Select only the city, year, month, and sales variables, in addition to the newly created variable.

# A tibble: 8,602 × 5
   city     year month sales avg_sales
   <chr>   <int> <int> <dbl>     <dbl>
 1 Abilene  2000     1    72      115.
 2 Abilene  2000     2    98      115.
 3 Abilene  2000     3   130      115.
 4 Abilene  2000     4    98      115.
 5 Abilene  2000     5   141      115.
 6 Abilene  2000     6   156      115.
 7 Abilene  2000     7   152      115.
 8 Abilene  2000     8   131      115.
 9 Abilene  2000     9   104      115.
10 Abilene  2000    10   101      115.
# ℹ 8,592 more rows

Click here for the answer key

txhousing |> 
  mutate(
    avg_sales = mean(sales),
    .by = c(city, year)
  ) |> 
  select(city, year, month, sales, avg_sales)

# A tibble: 8,602 × 5
   city     year month sales avg_sales
   <chr>   <int> <int> <dbl>     <dbl>
 1 Abilene  2000     1    72      115.
 2 Abilene  2000     2    98      115.
 3 Abilene  2000     3   130      115.
 4 Abilene  2000     4    98      115.
 5 Abilene  2000     5   141      115.
 6 Abilene  2000     6   156      115.
 7 Abilene  2000     7   152      115.
 8 Abilene  2000     8   131      115.
 9 Abilene  2000     9   104      115.
10 Abilene  2000    10   101      115.
# ℹ 8,592 more rows
…
